{
	"urls": [
		"https://rss.app/feeds/tkh29m9uDrxRtDs7.xml",
		"https://rss.app/feeds/fwb2KjlOAhqxHJng.xml",
		"https://rss.app/feeds/KWASsFV0gcYjNlnu.xml",
		"https://rss.app/feeds/x2HdGd52XTzeeWX7.xml",
		"https://rss.app/feeds/3o0hiWVFGhLs4rqY.xml"
	]
}
